245.145.68.20
81.234.83.225
162.99.72.156
219.70.93.226
200.50.208.246
189.156.50.228
176.207.171.113
199.120.247.252
140.12.179.254
134.11.127.56
64.159.50.186
71.156.129.25
149.124.249.50
117.196.180.50
64.5.252.173
66.191.197.57
100.247.127.146
150.223.45.167
108.10.164.236
154.67.10.100
176.79.152.191
56.206.63.120
9.234.241.183
75.218.123.87
97.171.109.49
245.51.24.240
175.18.189.154
234.254.31.101
101.5.236.50
103.31.165.197
134.141.50.84
193.133.58.97
199.226.198.234
107.46.224.241
9.96.92.142
37.13.12.48
187.95.210.7
34.98.53.43
114.88.237.221
136.165.17.171
180.38.151.248
251.144.209.220
216.24.145.111
138.78.253.189
118.197.253.215
60.139.252.141
79.211.106.35
248.65.183.226
119.226.2.182
233.213.247.19
51.109.185.155
40.33.135.254
64.5.252.173
107.45.15.202
46.174.103.9
102.27.98.41
146.42.10.143
181.44.165.103
217.74.16.190
47.211.90.251
167.253.76.117
239.6.3.126
224.114.171.46
128.118.217.210
68.217.140.179
60.76.192.38
252.51.16.55
145.158.146.91
225.161.49.1
16.58.190.59
18.216.12.20
98.147.49.118
81.109.50.97
232.186.240.162
39.219.165.183
235.172.211.151
62.72.91.36
187.169.225.61
85.127.209.102
215.175.252.138
102.203.44.92
121.173.226.188
168.166.27.168
124.175.1.104
218.37.40.57
133.239.137.88
240.233.206.143
234.7.238.59
31.86.89.233
106.245.203.132
146.143.56.143
233.39.73.85
165.89.244.2
84.141.145.105
103.135.224.217
226.81.209.110
200.50.208.246
138.237.149.151
2.219.187.122
165.31.9.183
53.36.32.131
200.111.248.176
174.3.75.107
13.235.144.229
93.20.191.138
128.118.217.210
245.204.215.102
218.37.40.57
140.108.99.149
128.152.79.12
15.237.4.229
146.156.94.3
131.159.34.217
102.203.44.92
189.79.211.231
193.195.250.56
136.147.98.151
167.251.160.153
79.179.90.48
219.183.150.51
166.15.129.188
93.20.191.138
237.118.126.160
184.124.222.128
153.48.254.128
92.160.177.253
175.253.125.202
41.158.67.24
163.123.142.162
192.119.213.214
96.134.94.142
167.251.160.153
108.72.66.65
219.169.7.214
233.130.134.16
190.113.190.174
4.130.101.214
107.66.233.222
98.169.227.70
232.194.93.153
16.81.170.245
94.150.132.170
90.167.51.148
24.24.45.114
57.222.177.103
215.175.252.138
121.173.226.188
36.125.70.70
103.147.87.203
226.13.87.177
90.167.51.148
21.92.223.135
171.155.183.39
236.5.187.215
21.158.100.114
93.20.191.138
171.149.181.2
185.191.5.108
187.55.238.201
41.13.235.239
177.35.206.52
146.71.219.126
146.143.56.143
180.38.151.248
115.189.165.118
177.112.0.104
112.129.168.246
226.65.38.197
89.181.206.15
230.202.131.76
74.208.1.32
43.229.21.127
209.165.45.50
75.19.14.39
18.216.12.20
252.247.66.98
16.81.170.245
43.229.21.127
57.151.206.56
217.74.16.190
211.23.73.58
64.28.40.226
187.67.229.169
214.221.171.84
233.192.212.212
75.218.123.87
155.246.193.233
242.119.68.151
170.213.196.175
118.117.136.54
113.229.147.240
118.76.55.195
29.111.49.249
253.199.150.251
93.84.19.35
105.82.53.92
94.150.132.170
157.141.97.126
152.58.7.21
86.209.55.8
209.165.45.50
54.65.41.21
13.119.128.205
102.203.44.92
31.153.145.83
113.179.150.208
127.58.192.121
125.124.116.208
81.157.99.192
38.92.177.82
230.53.9.3
172.195.182.10
110.138.87.112
246.32.51.119
123.96.244.137
94.33.189.94
255.245.73.44
101.156.148.233
112.42.235.159
252.140.188.98
108.156.160.149
140.189.181.83
239.6.3.126
56.100.180.231
113.229.66.240
145.177.214.168
121.173.226.188
114.81.63.98
6.88.93.180
17.61.179.50
220.202.111.56
7.88.159.1
87.93.83.71
96.122.229.32
244.227.10.235
56.4.136.254
52.190.56.22
226.65.38.197
1.55.146.89
94.150.132.170
16.58.190.59
125.74.252.159
34.49.112.38
173.227.51.7
85.127.209.102
103.170.193.210
136.184.22.6
249.60.53.115
246.165.205.150
218.33.37.19
149.124.249.50
122.190.245.226
114.65.128.231
239.154.230.235
156.101.198.215
193.34.22.204
139.50.143.207
219.183.150.51
147.155.21.162
184.43.254.36
107.45.15.202
92.198.159.214
155.1.10.116
196.67.32.62
248.116.151.229
176.79.152.191
178.159.77.19
174.3.75.107
183.82.227.35
49.231.83.62
35.99.54.114
54.250.60.185
242.112.205.196
135.76.220.167
39.162.248.168
60.60.164.138
142.189.13.18
145.225.110.241
218.84.104.224
179.123.22.166
77.145.128.13
4.232.42.139
209.165.45.50
115.189.165.118
196.107.60.90
13.68.40.161
204.39.227.69
205.171.101.228
12.76.150.104
120.143.17.200
167.80.180.3
221.71.195.108
10.216.134.57
43.165.254.120
61.96.66.8
251.144.209.220
40.33.135.254
1.122.73.191
214.112.207.125
8.72.231.159
252.128.17.134
147.155.21.162
167.80.180.3
216.126.91.44
123.94.243.46
220.117.208.123
122.178.246.218
68.217.140.179
145.225.110.241
105.214.72.244
118.56.96.204
219.93.171.100
16.81.170.245
114.82.30.92
165.89.244.2
90.167.51.148
53.111.239.235
246.165.205.150
40.33.135.254
37.164.79.16
246.165.205.150
37.137.231.187
186.155.228.197
83.162.163.99
130.128.53.254
45.116.28.242
87.2.143.180
48.170.186.107
45.246.114.200
210.110.192.74
155.1.10.116
103.170.193.210
222.31.109.167
225.29.13.177
154.67.10.100
6.71.2.55
146.143.56.143
156.112.123.230
149.24.212.1
242.170.187.92
134.141.50.84
111.189.131.205
245.51.24.240
219.70.93.226
124.185.97.162
9.241.231.40
1.1.182.123
43.30.82.188
137.244.220.173
80.136.221.85
167.251.160.153
86.209.55.8
7.185.91.172
90.245.115.16
5.241.45.93
122.1.171.243
128.118.217.210
81.129.214.9
62.174.20.186
222.130.17.155
112.129.168.246
97.31.53.43
144.7.41.173
30.242.249.85
10.62.125.79
55.93.244.216
107.94.116.31
215.181.233.231
120.247.56.18
123.94.168.98
45.246.114.200
184.17.63.104
85.183.222.247
143.23.167.107
97.222.223.240
61.198.176.202
142.191.155.148
71.212.111.137
219.70.93.226
187.169.225.61
174.9.55.44
57.246.143.79
240.223.124.132
113.229.66.240
127.58.192.121
215.175.252.138
97.183.213.13
128.213.161.48
178.156.4.195
102.27.98.41
62.72.91.36
55.93.244.216
130.119.150.33
51.223.62.151
223.53.63.194
7.88.159.1
138.48.75.212
138.22.195.175
140.189.181.83
173.41.175.148
252.51.16.55
68.6.220.46
136.113.212.86
9.252.254.15
212.103.204.60
140.189.181.83
183.82.227.35
161.5.37.50
67.153.7.16
200.50.208.246
147.25.37.116
208.44.216.155
179.218.130.85
131.110.249.127
13.235.144.229
238.190.30.119
18.216.12.20
204.39.227.69
17.183.213.60
181.60.243.70
2.219.187.122
77.145.128.13
17.202.175.149
1.1.182.123
234.254.31.101
169.121.92.62
167.80.180.3
152.58.7.21
121.10.125.149
215.175.252.138
87.2.143.180
20.65.19.100
162.61.234.115
76.51.117.106
5.229.187.210
30.194.185.43
62.116.28.231
47.218.239.102
1.163.105.30
179.124.248.8
187.55.238.201
87.210.91.168
125.124.116.208
1.55.146.89
232.194.93.153
150.223.45.167
113.179.150.208
211.79.35.221
99.153.223.234
68.6.220.46
62.72.91.36
18.216.12.20
191.223.210.196
9.252.254.15
8.72.231.159
57.227.95.31
230.53.9.3
187.55.238.201
90.110.118.170
186.155.228.197
16.81.170.245
181.60.243.70
230.202.131.76
80.136.221.85
80.136.50.142
48.170.186.107
7.88.159.1
122.1.171.243
114.240.224.160
215.181.233.231
56.4.136.254
135.115.66.212
121.132.121.106
175.253.125.202
111.46.232.15
252.247.66.98
98.185.143.5
51.223.62.151
108.100.4.148
44.205.174.42
238.228.232.21
85.127.209.102
213.30.129.63
246.165.205.150
45.246.114.200
6.71.2.55
230.111.58.39
226.81.209.110
120.189.228.29
1.210.62.251
30.242.249.85
10.2.6.2
158.253.161.243
148.182.164.8
209.165.45.50
185.191.5.108
180.180.13.12
167.80.180.3
170.109.178.232
5.208.106.37
66.148.18.166
104.11.82.228
193.133.58.97
103.31.165.197
146.143.56.143
75.144.185.108
55.168.111.62
241.13.118.36
36.173.121.60
23.208.185.152
17.223.23.54
87.17.241.247
114.65.128.231
207.98.152.55
68.6.220.46
244.151.174.28
213.188.94.0
64.16.160.151
211.23.73.58
193.133.58.97
57.246.143.79
167.253.76.117
196.67.32.62
75.218.123.87
216.174.25.209
80.240.174.106
231.54.234.13
148.218.99.215
186.250.160.185
243.211.117.94
48.170.186.107
230.53.9.3
138.49.90.16
232.186.240.162
191.180.248.64
184.17.63.104
150.223.45.167
163.123.142.162
5.241.45.93
108.72.66.65
134.11.127.56
145.233.112.18
234.254.31.101
123.96.244.137
252.57.133.31
247.173.164.117
179.218.130.85
175.241.208.104
100.113.27.211
26.7.75.95
239.6.3.126
234.34.209.155
21.49.194.25
73.164.165.10
39.219.165.183
13.235.144.229
187.95.210.7
163.123.142.162
75.144.185.108
84.137.59.154
45.42.67.124
106.29.119.78
37.137.231.187
5.241.45.93
39.162.248.168
219.183.150.51
85.174.93.241
153.48.254.128
103.135.224.217
58.115.110.223
244.86.114.105
57.222.177.103
116.75.61.128
10.62.125.79
189.150.100.241
230.111.58.39
185.67.126.21
85.87.192.248
55.43.22.78
247.229.112.177
238.69.172.124
57.103.121.108
195.75.32.145
140.12.179.254
99.5.25.104
117.187.175.102
246.32.51.119
87.2.143.180
221.59.60.198
112.85.251.53
157.176.44.193
39.206.28.148
236.95.238.120
105.82.53.92
237.244.215.171
193.34.22.204
147.25.37.116
32.144.106.141
69.232.87.212
114.241.135.179
191.222.130.4
179.218.130.85
83.110.155.10
26.7.75.95
212.103.204.60
248.65.183.226
164.7.2.29
239.6.3.126
37.164.79.16
207.196.48.158
46.200.64.136
192.180.116.78
31.25.131.18
56.4.136.254
66.148.18.166
61.81.79.2
124.175.1.104
156.157.51.194
138.106.205.11
16.176.184.147
9.234.241.183
108.97.26.243
183.82.227.35
29.111.49.249
242.114.168.43
80.240.174.106
66.27.59.217
230.251.193.89
148.182.164.8
107.94.116.31
98.169.227.70
4.130.101.214
8.156.98.242
219.127.19.194
253.199.150.251
80.136.50.142
115.189.165.118
147.24.16.179
225.29.13.177
190.17.41.140
113.229.66.240
80.240.174.106
17.183.213.60
127.20.217.130
189.79.211.231
170.213.196.175
94.155.251.184
240.223.124.132
201.172.236.132
18.216.12.20
37.164.79.16
74.142.168.133
181.207.231.147
58.115.110.223
87.2.143.180
136.198.99.65
1.122.73.191
156.157.51.194
170.213.196.175
141.198.0.240
108.83.19.153
155.65.126.75
143.23.167.107
67.153.7.16
12.76.150.104
206.1.238.229
125.74.252.159
108.100.4.148
241.65.211.35
181.109.219.79
94.150.132.170
142.79.99.219
197.77.2.55
192.180.116.78
186.101.194.234
233.39.73.85
136.165.17.171
99.5.25.104
219.108.187.251
24.107.181.34
75.9.46.120
213.216.70.90
165.31.9.183
79.44.55.247
57.151.206.56
94.155.251.184
106.29.119.78
149.24.212.1
138.22.195.175
122.178.246.218
251.132.206.155
130.128.53.254
105.112.67.55
125.124.116.208
113.176.23.19
126.121.78.30
96.144.145.86
85.57.149.189
242.52.192.7
188.22.96.92
159.61.76.141
233.130.134.16
100.247.127.146
29.111.49.249
185.67.126.21
80.220.239.62
31.86.89.233
219.112.52.171
2.116.200.117
85.127.209.102
102.203.44.92
181.207.231.147
101.156.148.233
193.34.22.204
183.151.184.240
145.158.146.91
107.150.168.25
39.206.28.148
240.217.220.205
57.190.116.115
56.125.247.195
68.156.0.189
45.246.114.200
9.241.231.40
39.219.165.183
219.93.171.100
155.65.126.75
224.114.171.46
112.23.69.78
189.79.211.231
184.43.254.36
222.31.109.167
217.83.91.194
39.162.248.168
117.27.96.48
51.11.252.109
62.218.240.33
227.106.115.112
9.252.254.15
174.9.55.44
75.9.46.120
22.108.208.135
242.112.205.196
132.96.232.123
232.194.93.153
128.186.250.70
249.235.242.111
85.174.93.241
41.216.174.211
17.183.213.60
202.88.44.18
85.57.149.189
66.27.59.217
186.250.160.185
222.18.228.173
175.47.73.43
99.5.25.104
108.156.160.149
45.246.114.200
129.175.25.70
66.16.88.253
146.156.94.3
78.247.18.65
242.170.187.92
86.158.169.18
106.70.193.225
67.146.247.84
156.157.51.194
69.232.87.212
142.79.99.219
75.19.14.39
111.218.73.207
92.198.159.214
98.147.49.118
80.220.239.62
51.109.185.155
168.188.11.250
213.30.129.63
37.13.12.48
222.212.5.49
47.218.239.102
114.240.224.160
142.146.212.41
92.1.91.152
199.130.234.86
252.187.107.235
39.162.248.168
41.90.193.3
209.165.45.50
221.71.195.108
52.189.50.184
200.110.26.187
152.58.7.21
90.167.51.148
230.251.193.89
91.98.172.16
166.15.129.188
93.84.19.35
222.18.228.173
153.48.254.128
219.183.150.51
136.167.129.45
9.53.31.107
237.133.158.158
63.129.79.244
170.213.196.175
212.176.223.160
12.76.150.104
56.183.187.92
147.155.21.162
39.162.248.168
53.111.239.235
221.71.195.108
40.124.85.28
222.130.17.155
229.25.245.117
187.169.225.61
133.239.137.88
152.98.181.173
164.142.127.79
125.94.95.99
226.65.38.197
240.233.206.143
217.83.91.194
66.148.18.166
134.141.50.84
217.74.16.190
205.11.153.65
69.117.47.110
98.185.143.5
66.16.88.253
57.37.249.62
75.144.185.108
217.74.159.77
150.223.45.167
191.180.248.64
66.16.88.253
224.114.171.46
194.116.214.50
33.10.63.169
44.145.91.87
185.67.126.21
236.5.187.215
112.85.251.53
204.31.155.194
179.91.110.16
41.216.174.211
219.169.7.214
232.186.240.162
162.190.104.62
99.153.223.234
118.248.118.60
128.139.62.56
120.143.17.200
120.247.56.18
200.10.28.45
192.119.213.214
179.91.110.16
22.180.211.102
148.182.164.8
7.104.175.136
214.7.30.194
17.61.179.50
91.33.179.102
84.85.26.131
131.110.249.127
219.93.171.100
121.10.125.149
57.66.10.8
152.98.16.39
183.151.184.240
5.241.45.93
219.244.79.144
94.190.60.222
136.127.139.251
108.10.164.236
113.124.29.126
184.55.148.206
248.141.162.214
67.153.7.16
136.113.212.86
237.166.187.250
1.210.62.251
200.111.248.176
183.151.184.240
246.32.51.119
80.136.50.142
185.191.5.108
180.38.151.248
185.206.179.65
143.186.131.193
101.5.236.50
245.51.24.240
242.186.172.98
30.194.185.43
199.130.234.86
66.0.106.251
60.139.252.141
245.204.215.102
17.202.175.149
