170.54.13.87
51.49.20.127
71.128.77.66
214.225.115.241
71.128.77.66
101.171.234.240
180.15.250.182
80.79.152.248
108.237.48.136
168.77.86.19
51.49.20.127
214.225.115.241
202.201.88.142
173.47.152.182
170.54.13.87
19.135.184.16
60.178.54.98
171.215.213.6
51.49.20.127
101.171.234.240
79.80.84.155
71.128.77.66
202.201.88.142
71.128.77.66
101.171.234.240
202.201.88.142
171.215.213.6
101.171.234.240
99.65.69.252
51.49.20.127
168.77.86.19
206.88.201.106
214.225.115.241
108.237.48.136
168.77.86.19
99.65.69.252
202.201.88.142
60.178.54.98
60.178.54.98
32.156.138.166
